{
  "project_info": {
    "project_number": "596081447916",
    "firebase_url": "https://proj1-256a7.firebaseio.com",
    "project_id": "proj1-256a7",
    "storage_bucket": "proj1-256a7.appspot.com"
  },
  "client": [
    {
      "client_info": {
        "mobilesdk_app_id": "1:596081447916:android:81997081254177a1",
        "android_client_info": {
          "package_name": "com.ionicframework.sidemenu177006"
        }
      },
      "oauth_client": [
        {
          "client_id": "596081447916-akbe6k52e30fkmoekkpqd0dslpearccv.apps.googleusercontent.com",
          "client_type": 3
        }
      ],
      "api_key": [
        {
          "current_key": "AIzaSyBddFHhb8EZ-X3OfUNlchdwWhcPvpUrYWs"
        }
      ],
      "services": {
        "analytics_service": {
          "status": 1
        },
        "appinvite_service": {
          "status": 1,
          "other_platform_oauth_client": []
        },
        "ads_service": {
          "status": 2
        }
      }
    }
  ],
  "configuration_version": "1"
}